{
    "KPlugin": {
        "Authors": [
            {
                "Email": "david.shlemayev@gmail.com",
                "Name": "David Shlemayev",
                "Name[ar]": "David Shlemayev",
                "Name[az]": "David Shlemayev",
                "Name[bg]": "David Shlemayev",
                "Name[ca@valencia]": "David Shlemayev",
                "Name[ca]": "David Shlemayev",
                "Name[cs]": "David Shlemayev",
                "Name[de]": "David Shlemayev",
                "Name[el]": "David Shlemayev",
                "Name[en_GB]": "David Shlemayev",
                "Name[es]": "David Shlemayev",
                "Name[eu]": "David Shlemayev",
                "Name[fi]": "David Shlemayev",
                "Name[fr]": "David Shlemayev",
                "Name[hu]": "David Shlemayev",
                "Name[ia]": "David Shlemayev",
                "Name[id]": "David Shlemayev",
                "Name[is]": "David Shlemayev",
                "Name[it]": "David Shlemayev",
                "Name[ko]": "David Shlemayev",
                "Name[lt]": "David Shlemayev",
                "Name[nl]": "David Shlemayev",
                "Name[nn]": "David Shlemayev",
                "Name[pl]": "David Shlemayev",
                "Name[pt]": "David Shlemayev",
                "Name[pt_BR]": "David Shlemayev",
                "Name[ro]": "David Shlemayev",
                "Name[ru]": "David Shlemayev",
                "Name[sk]": "David Shlemayev",
                "Name[sl]": "David Shlemayev",
                "Name[sv]": "David Shlemayev",
                "Name[tr]": "David Shlemayev",
                "Name[uk]": "Давид Шлемаєв",
                "Name[x-test]": "xxDavid Shlemayevxx",
                "Name[zh_CN]": "David Shlemayev",
                "Name[zh_TW]": "David Shlemayev"
            }
        ],
        "Description": "Show your phone's network signal strength",
        "Description[ar]": "أظهر قوة إشارة شبكة هاتفك",
        "Description[az]": "Telefonunuzun şəbəkə siqnalı gücü göstərilsin",
        "Description[bg]": "Показване силата на сигнала на мрежата на телефона",
        "Description[ca@valencia]": "Mostra la intensitat del senyal de xarxa del vostre telèfon",
        "Description[ca]": "Mostra la intensitat del senyal de xarxa del vostre telèfon",
        "Description[cs]": "Zobrazit sílu signálu telefonu",
        "Description[de]": "Signalstärke des Mobiltelefons anzeigen",
        "Description[el]": "Εμφάνιση της ισχύος του δικτυακού σήματος",
        "Description[en_GB]": "Show your phone's network signal strength",
        "Description[es]": "Muestra la fuerza de la señal de red de su teléfono",
        "Description[eu]": "Erakutsi zure telefonoaren sare-seinalearen sendotasuna",
        "Description[fi]": "Näytä puhelimen kentän voimakkuus",
        "Description[fr]": "Afficher la force du signal du réseau pour votre téléphone",
        "Description[hu]": "A telefon hálózati jelerősségének megjelenítése",
        "Description[ia]": "Monstra fortia de signal de rete de tu telephono",
        "Description[id]": "Tampilkan kekuatan sinyal teleponmu",
        "Description[it]": "Mostra la potenza del segnale di rete del tuo telefono",
        "Description[ko]": "내 휴대폰의 네트워크 신호 세기 표시",
        "Description[lt]": "Rodyti jūsų telefono tinklo signalo stiprumą",
        "Description[nl]": "Signaalsterkte van het netwerk van uw telefoon tonen",
        "Description[nn]": "Vis signalstyrke til telefon­nettverket",
        "Description[pl]": "Pokazuje siłę sygnału sieciowego innego urządzenia",
        "Description[pt]": "Mostrar a potência do sinal da rede do seu telefone",
        "Description[pt_BR]": "Mostra a força do sinal de rede do seu celular",
        "Description[ro]": "Arată puterea semnalului rețelei telefonului",
        "Description[ru]": "Просмотр уровня сигнала мобильной сети телефона",
        "Description[sk]": "Zobraziť silu signálu vášho telefónu",
        "Description[sl]": "Pokaži moč omrežnega signala telefona",
        "Description[sv]": "Visa telefonens nätverkssignalstyrka",
        "Description[tr]": "Telefonunuzun ağ sinyal gücünü gösterin",
        "Description[uk]": "Показ потужності сигналу мережі на вашому телефоні",
        "Description[x-test]": "xxShow your phone's network signal strengthxx",
        "Description[zh_CN]": "显示您手机的网络信号强度",
        "Description[zh_TW]": "顯示手機網路訊號的強度",
        "EnabledByDefault": true,
        "Icon": "network-wireless",
        "Id": "kdeconnect_connectivity_report",
        "License": "GPL",
        "Name": "Connectivity monitor",
        "Name[ar]": "مراقب الاتصال",
        "Name[az]": "Bağlantı monitoru",
        "Name[bg]": "Следене на свързаност",
        "Name[ca@valencia]": "Monitor de la connectivitat",
        "Name[ca]": "Monitor de la connectivitat",
        "Name[cs]": "Monitor spojení",
        "Name[de]": "Verbindungs-Überwachung",
        "Name[el]": "Παρακολούθηση συνδεσιμότητας",
        "Name[en_GB]": "Connectivity monitor",
        "Name[es]": "Monitor de conectividad",
        "Name[eu]": "Konektagarritasun begiralea",
        "Name[fi]": "Yhteysvalvonta",
        "Name[fr]": "Surveillance de connectivité",
        "Name[hu]": "Kapcsolódásfigyelő",
        "Name[ia]": "Controlator de connectivitate",
        "Name[id]": "Pemantau konektivitas",
        "Name[is]": "Tengingavöktun",
        "Name[it]": "Monitor di connettività",
        "Name[ko]": "연결 모니터",
        "Name[lt]": "Jungiamumo prižiūryklė",
        "Name[nl]": "Monitor van connectiviteit",
        "Name[nn]": "Sambands­overvaking",
        "Name[pl]": "Zgłaszanie łączności",
        "Name[pt]": "Monitor de conectividade",
        "Name[pt_BR]": "Monitor de conectividade",
        "Name[ro]": "Monitor de conectivitate",
        "Name[ru]": "Монитор подключения",
        "Name[sk]": "Monitor pripojenia",
        "Name[sl]": "Nadzornik povezovanja",
        "Name[sv]": "Anslutningsövervakare",
        "Name[tr]": "Bağlantı monitörü",
        "Name[uk]": "Монітор з'єднання",
        "Name[x-test]": "xxConnectivity monitorxx",
        "Name[zh_CN]": "信号监视器",
        "Name[zh_TW]": "連線監視器",
        "ServiceTypes": [
            "KdeConnect/Plugin"
        ],
        "Version": "1.0"
    },
    "X-KdeConnect-OutgoingPacketType": [
        "kdeconnect.connectivity_report.request"
    ],
    "X-KdeConnect-SupportedPacketType": [
        "kdeconnect.connectivity_report"
    ]
}
